<svg width="36" height="35" viewBox="0 0 36 35" fill="none" xmlns="http://www.w3.org/2000/svg">
<path d="M35.2455 35H30.0877V11.7931C30.0877 8.14377 27.1018 5.15786 23.4525 5.15786H8.92871V0H25.3017C30.7935 0 35.2455 4.45201 35.2455 9.94381V35Z" fill="url(#paint0_linear_81_162)"/>
<path d="M0 0H5.15786V23.2069C5.15786 26.8562 8.14377 29.8421 11.7931 29.8421H26.3166V35H9.94381C4.45201 35 0 30.548 0 25.0562V0Z" fill="url(#paint1_linear_81_162)"/>
<path d="M20.5918 10.9334H11.0561V20.469C11.0561 22.4558 12.6667 24.0665 14.6536 24.0665H24.1892V14.531C24.1892 12.5442 22.5786 10.9334 20.5918 10.9334Z" fill="url(#paint2_linear_81_162)"/>
<defs>
<linearGradient id="paint0_linear_81_162" x1="0" y1="0" x2="42.1449" y2="13.5659" gradientUnits="userSpaceOnUse">
<stop stop-color="#D81F5A"/>
<stop offset="1" stop-color="#8438BF"/>
</linearGradient>
<linearGradient id="paint1_linear_81_162" x1="0" y1="0" x2="42.1449" y2="13.5659" gradientUnits="userSpaceOnUse">
<stop stop-color="#D81F5A"/>
<stop offset="1" stop-color="#8438BF"/>
</linearGradient>
<linearGradient id="paint2_linear_81_162" x1="0" y1="0" x2="42.1449" y2="13.5659" gradientUnits="userSpaceOnUse">
<stop stop-color="#D81F5A"/>
<stop offset="1" stop-color="#8438BF"/>
</linearGradient>
</defs>
</svg>
